{
    "message": "The given data was invalid.",
    "errors": {
        "nome": [
            "The nome field is required.",
            "The nome must be a string.",
            "The nome must not be greater than 50 characters."
        ]
    }
}