{
    "data": [
        {
            "id": 27,
            "nome": "Pedro Altenwerth",
            "descricao": "Alice. 'Stand up and down looking for the baby, the shriek of the way--' 'THAT generally takes.",
            "preco_atual": "52",
            "categoria": "Dr. Kyla Terry",
            "estoque_atual": 0
        }
    ]
}