{
    "message": "The given data was invalid.",
    "errors": {
        "nome": [
            "The nome must be a string.",
            "The nome must not be greater than 50 characters."
        ],
        "descricao": [
            "The descricao must be a string.",
            "The descricao must not be greater than 100 characters."
        ],
        "preco_atual": [
            "The preco must be a numeric.",
            "The preco atual must be greater than or equal to 0.",
            "The preco atual format is invalid."
        ],
        "categoria_id": [
            "The categoria must be a integer.",
            "The selected categoria id is invalid."
        ]
    }
}