{
    "data": {
        "id": 5,
        "nome": "Maxie Jones Sr.",
        "descricao": "I will tell you how the Dodo solemnly, rising to its feet, 'I move that the mouse doesn't get.",
        "preco_atual": "31811617",
        "categoria": "Bernadette Langworth",
        "estoque_atual": 1000
    }
}